^D:\WORK\OUTRIDER\DELIVERIAN\RELEASE\BGBLACK.OBJ|D:\WORK\OUTRIDER\DELIVERIAN\RELEASE\BGTOP.OBJ|D:\WORK\OUTRIDER\DELIVERIAN\RELEASE\BLADE.OBJ|D:\WORK\OUTRIDER\DELIVERIAN\RELEASE\BOSS.OBJ|D:\WORK\OUTRIDER\DELIVERIAN\RELEASE\BOSS_AI.OBJ|D:\WORK\OUTRIDER\DELIVERIAN\RELEASE\BULLET.OBJ|D:\WORK\OUTRIDER\DELIVERIAN\RELEASE\BULLETSIGHT.OBJ|D:\WORK\OUTRIDER\DELIVERIAN\RELEASE\COLLISION.OBJ|D:\WORK\OUTRIDER\DELIVERIAN\RELEASE\CONTROLLINPUT.OBJ|D:\WORK\OUTRIDER\DELIVERIAN\RELEASE\DRAW_TEXT.OBJ|D:\WORK\OUTRIDER\DELIVERIAN\RELEASE\ENEMY.OBJ|D:\WORK\OUTRIDER\DELIVERIAN\RELEASE\ENEMYEMITTER.OBJ|D:\WORK\OUTRIDER\DELIVERIAN\RELEASE\ENEMY_AI.OBJ|D:\WORK\OUTRIDER\DELIVERIAN\RELEASE\ENEMY_LASER.OBJ|D:\WORK\OUTRIDER\DELIVERIAN\RELEASE\EXPLOSION.OBJ|D:\WORK\OUTRIDER\DELIVERIAN\RELEASE\FADE.OBJ|D:\WORK\OUTRIDER\DELIVERIAN\RELEASE\FUNC.OBJ|D:\WORK\OUTRIDER\DELIVERIAN\RELEASE\GAME.OBJ|D:\WORK\OUTRIDER\DELIVERIAN\RELEASE\INPUT.OBJ|D:\WORK\OUTRIDER\DELIVERIAN\RELEASE\MAIN.OBJ|D:\WORK\OUTRIDER\DELIVERIAN\RELEASE\PLAYER.OBJ|D:\WORK\OUTRIDER\DELIVERIAN\RELEASE\READCSV.OBJ|D:\WORK\OUTRIDER\DELIVERIAN\RELEASE\RESULT.OBJ|D:\WORK\OUTRIDER\DELIVERIAN\RELEASE\SCENE.OBJ|D:\WORK\OUTRIDER\DELIVERIAN\RELEASE\SOUND.OBJ|D:\WORK\OUTRIDER\DELIVERIAN\RELEASE\STAGE.OBJ|D:\WORK\OUTRIDER\DELIVERIAN\RELEASE\TABLE.OBJ|D:\WORK\OUTRIDER\DELIVERIAN\RELEASE\TITLE.OBJ|D:\WORK\OUTRIDER\DELIVERIAN\RELEASE\UI_BOSS.OBJ|D:\WORK\OUTRIDER\DELIVERIAN\RELEASE\UI_DRAW.OBJ|D:\WORK\OUTRIDER\DELIVERIAN\RELEASE\UI_LIFE.OBJ
C:\PROGRAM FILES (X86)\WINDOWS KITS\10\LIB\10.0.16299.0\UM\X86\XAUDIO2.LIB
C:\PROGRAM FILES (X86)\WINDOWS KITS\10\LIB\10.0.16299.0\UM\X86\KERNEL32.LIB
C:\PROGRAM FILES (X86)\WINDOWS KITS\10\LIB\10.0.16299.0\UM\X86\USER32.LIB
C:\PROGRAM FILES (X86)\WINDOWS KITS\10\LIB\10.0.16299.0\UM\X86\GDI32.LIB
C:\PROGRAM FILES (X86)\WINDOWS KITS\10\LIB\10.0.16299.0\UM\X86\WINSPOOL.LIB
C:\PROGRAM FILES (X86)\WINDOWS KITS\10\LIB\10.0.16299.0\UM\X86\COMDLG32.LIB
C:\PROGRAM FILES (X86)\WINDOWS KITS\10\LIB\10.0.16299.0\UM\X86\ADVAPI32.LIB
C:\PROGRAM FILES (X86)\WINDOWS KITS\10\LIB\10.0.16299.0\UM\X86\SHELL32.LIB
C:\PROGRAM FILES (X86)\WINDOWS KITS\10\LIB\10.0.16299.0\UM\X86\OLE32.LIB
C:\PROGRAM FILES (X86)\WINDOWS KITS\10\LIB\10.0.16299.0\UM\X86\OLEAUT32.LIB
C:\PROGRAM FILES (X86)\WINDOWS KITS\10\LIB\10.0.16299.0\UM\X86\UUID.LIB
C:\PROGRAM FILES (X86)\WINDOWS KITS\10\LIB\10.0.16299.0\UM\X86\ODBC32.LIB
C:\PROGRAM FILES (X86)\WINDOWS KITS\10\LIB\10.0.16299.0\UM\X86\ODBCCP32.LIB
D:\WORK\OUTRIDER\DELIVERIAN\RELEASE\BGBLACK.OBJ
D:\WORK\OUTRIDER\DELIVERIAN\RELEASE\BGTOP.OBJ
D:\WORK\OUTRIDER\DELIVERIAN\RELEASE\BLADE.OBJ
D:\WORK\OUTRIDER\DELIVERIAN\RELEASE\BOSS.OBJ
D:\WORK\OUTRIDER\DELIVERIAN\RELEASE\BOSS_AI.OBJ
D:\WORK\OUTRIDER\DELIVERIAN\RELEASE\BULLET.OBJ
D:\WORK\OUTRIDER\DELIVERIAN\RELEASE\BULLETSIGHT.OBJ
D:\WORK\OUTRIDER\DELIVERIAN\RELEASE\COLLISION.OBJ
D:\WORK\OUTRIDER\DELIVERIAN\RELEASE\CONTROLLINPUT.OBJ
D:\WORK\OUTRIDER\DELIVERIAN\RELEASE\DRAW_TEXT.OBJ
D:\WORK\OUTRIDER\DELIVERIAN\RELEASE\ENEMY.OBJ
D:\WORK\OUTRIDER\DELIVERIAN\RELEASE\ENEMY_AI.OBJ
D:\WORK\OUTRIDER\DELIVERIAN\RELEASE\ENEMYEMITTER.OBJ
D:\WORK\OUTRIDER\DELIVERIAN\RELEASE\ENEMY_LASER.OBJ
D:\WORK\OUTRIDER\DELIVERIAN\RELEASE\EXPLOSION.OBJ
D:\WORK\OUTRIDER\DELIVERIAN\RELEASE\FADE.OBJ
D:\WORK\OUTRIDER\DELIVERIAN\RELEASE\GAME.OBJ
D:\WORK\OUTRIDER\DELIVERIAN\RELEASE\INPUT.OBJ
D:\WORK\OUTRIDER\DELIVERIAN\RELEASE\MAIN.OBJ
D:\WORK\OUTRIDER\DELIVERIAN\RELEASE\PLAYER.OBJ
D:\WORK\OUTRIDER\DELIVERIAN\RELEASE\READCSV.OBJ
D:\WORK\OUTRIDER\DELIVERIAN\RELEASE\RESULT.OBJ
D:\WORK\OUTRIDER\DELIVERIAN\RELEASE\SCENE.OBJ
D:\WORK\OUTRIDER\DELIVERIAN\RELEASE\UI_BOSS.OBJ
D:\WORK\OUTRIDER\DELIVERIAN\RELEASE\UI_DRAW.OBJ
D:\WORK\OUTRIDER\DELIVERIAN\RELEASE\SOUND.OBJ
D:\WORK\OUTRIDER\DELIVERIAN\RELEASE\FUNC.OBJ
D:\WORK\OUTRIDER\DELIVERIAN\RELEASE\STAGE.OBJ
D:\WORK\OUTRIDER\DELIVERIAN\RELEASE\TABLE.OBJ
D:\WORK\OUTRIDER\DELIVERIAN\RELEASE\TITLE.OBJ
D:\WORK\OUTRIDER\DELIVERIAN\RELEASE\UI_LIFE.OBJ
C:\WINDOWS\GLOBALIZATION\SORTING\SORTDEFAULT.NLS
C:\PROGRAM FILES (X86)\MICROSOFT VISUAL STUDIO\2017\COMMUNITY\VC\TOOLS\MSVC\14.14.26428\BIN\HOSTX86\X86\C2.DLL
C:\PROGRAM FILES (X86)\MICROSOFT DIRECTX SDK (JUNE 2010)\LIB\X86\D3D9.LIB
C:\PROGRAM FILES (X86)\MICROSOFT DIRECTX SDK (JUNE 2010)\LIB\X86\D3DX9.LIB
C:\PROGRAM FILES (X86)\MICROSOFT DIRECTX SDK (JUNE 2010)\LIB\X86\DINPUT8.LIB
C:\PROGRAM FILES (X86)\MICROSOFT DIRECTX SDK (JUNE 2010)\LIB\X86\DXGUID.LIB
C:\PROGRAM FILES (X86)\WINDOWS KITS\10\LIB\10.0.16299.0\UM\X86\WINMM.LIB
C:\PROGRAM FILES (X86)\MICROSOFT VISUAL STUDIO\2017\COMMUNITY\VC\TOOLS\MSVC\14.14.26428\LIB\X86\MSVCRT.LIB
C:\PROGRAM FILES (X86)\MICROSOFT VISUAL STUDIO\2017\COMMUNITY\VC\TOOLS\MSVC\14.14.26428\LIB\X86\OLDNAMES.LIB
C:\PROGRAM FILES (X86)\MICROSOFT VISUAL STUDIO\2017\COMMUNITY\VC\TOOLS\MSVC\14.14.26428\LIB\X86\MSVCPRT.LIB
C:\PROGRAM FILES (X86)\MICROSOFT VISUAL STUDIO\2017\COMMUNITY\VC\TOOLS\MSVC\14.14.26428\LIB\X86\VCRUNTIME.LIB
C:\PROGRAM FILES (X86)\WINDOWS KITS\10\LIB\10.0.17134.0\UCRT\X86\UCRT.LIB
C:\PROGRAM FILES (X86)\MICROSOFT VISUAL STUDIO\2017\COMMUNITY\VC\TOOLS\MSVC\14.14.26428\BIN\HOSTX86\X86\1041\LINKUI.DLL
C:\PROGRAM FILES (X86)\WINDOWS KITS\10\BIN\10.0.17134.0\X86\RC.EXE
C:\PROGRAM FILES (X86)\MICROSOFT VISUAL STUDIO\2017\COMMUNITY\VC\TOOLS\MSVC\14.14.26428\BIN\HOSTX86\X86\CVTRES.EXE
C:\WINDOWS\SYSTEM32\TZRES.DLL
C:\PROGRAM FILES (X86)\MICROSOFT VISUAL STUDIO\2017\COMMUNITY\VC\TOOLS\MSVC\14.14.26428\BIN\HOSTX86\X86\VCTIP.EXE
