^D:\WORK\OUTRIDER\Deliverian\Project1.vcxproj
D:\WORK\OUTRIDER\Deliverian\Release\Project1.ipdb
D:\WORK\OUTRIDER\Deliverian\Release\Project1.iobj
^D:\WORK\OUTRIDER\Deliverian\Project1.vcxproj
D:\WORK\OUTRIDER\Deliverian\Release\Project1.ipdb
D:\WORK\OUTRIDER\Deliverian\Release\Project1.iobj
^D:\WORK\OUTRIDER\Deliverian\Project1.vcxproj
D:\WORK\OUTRIDER\Deliverian\Release\Project1.ipdb
D:\WORK\OUTRIDER\Deliverian\Release\Project1.iobj
^D:\WORK\OUTRIDER\Deliverian\Project1.vcxproj
D:\WORK\OUTRIDER\Deliverian\Release\Project1.ipdb
D:\WORK\OUTRIDER\Deliverian\Release\Project1.iobj
^D:\WORK\OUTRIDER\Deliverian\Project1.vcxproj
D:\WORK\OUTRIDER\Deliverian\Release\Project1.ipdb
D:\WORK\OUTRIDER\Deliverian\Release\Project1.iobj
^D:\WORK\OUTRIDER\Deliverian\Project1.vcxproj
D:\WORK\OUTRIDER\Deliverian\Release\Project1.ipdb
D:\WORK\OUTRIDER\Deliverian\Release\Project1.iobj
^D:\WORK\OUTRIDER\Deliverian\Project1.vcxproj
D:\WORK\OUTRIDER\Deliverian\Release\Project1.ipdb
D:\WORK\OUTRIDER\Deliverian\Release\Project1.iobj
^D:\WORK\OUTRIDER\Deliverian\Project1.vcxproj
D:\WORK\OUTRIDER\Deliverian\Release\Project1.ipdb
D:\WORK\OUTRIDER\Deliverian\Release\Project1.iobj
^D:\WORK\OUTRIDER\Deliverian\Project1.vcxproj
D:\WORK\OUTRIDER\Deliverian\Release\Project1.ipdb
D:\WORK\OUTRIDER\Deliverian\Release\Project1.iobj
^D:\WORK\OUTRIDER\Deliverian\Project1.vcxproj
D:\WORK\OUTRIDER\Deliverian\Release\Project1.ipdb
D:\WORK\OUTRIDER\Deliverian\Release\Project1.iobj
^D:\WORK\OUTRIDER\Deliverian\Project1.vcxproj
D:\WORK\OUTRIDER\Deliverian\Release\Project1.ipdb
D:\WORK\OUTRIDER\Deliverian\Release\Project1.iobj
^D:\WORK\OUTRIDER\Deliverian\Project1.vcxproj
D:\WORK\OUTRIDER\Deliverian\Release\Project1.ipdb
D:\WORK\OUTRIDER\Deliverian\Release\Project1.iobj
^D:\WORK\OUTRIDER\Deliverian\Project1.vcxproj
D:\WORK\OUTRIDER\Deliverian\Release\Project1.ipdb
D:\WORK\OUTRIDER\Deliverian\Release\Project1.iobj
^D:\WORK\OUTRIDER\Deliverian\Project1.vcxproj
D:\WORK\OUTRIDER\Deliverian\Release\Project1.ipdb
D:\WORK\OUTRIDER\Deliverian\Release\Project1.iobj
^D:\WORK\OUTRIDER\Deliverian\Project1.vcxproj
D:\WORK\OUTRIDER\Deliverian\Release\Project1.ipdb
D:\WORK\OUTRIDER\Deliverian\Release\Project1.iobj
^D:\WORK\OUTRIDER\Deliverian\Project1.vcxproj
D:\WORK\OUTRIDER\Deliverian\Release\Project1.ipdb
D:\WORK\OUTRIDER\Deliverian\Release\Project1.iobj
^D:\WORK\OUTRIDER\Deliverian\Project1.vcxproj
D:\WORK\OUTRIDER\Deliverian\Release\Project1.ipdb
D:\WORK\OUTRIDER\Deliverian\Release\Project1.iobj
^D:\WORK\OUTRIDER\Deliverian\Project1.vcxproj
D:\WORK\OUTRIDER\Deliverian\Release\Project1.ipdb
D:\WORK\OUTRIDER\Deliverian\Release\Project1.iobj
^D:\WORK\OUTRIDER\Deliverian\Project1.vcxproj
D:\WORK\OUTRIDER\Deliverian\Release\Project1.ipdb
D:\WORK\OUTRIDER\Deliverian\Release\Project1.iobj
^D:\WORK\OUTRIDER\Deliverian\Project1.vcxproj
D:\WORK\OUTRIDER\Deliverian\Release\Project1.ipdb
D:\WORK\OUTRIDER\Deliverian\Release\Project1.iobj
^D:\WORK\OUTRIDER\Deliverian\Project1.vcxproj
D:\WORK\OUTRIDER\Deliverian\Release\Project1.ipdb
D:\WORK\OUTRIDER\Deliverian\Release\Project1.iobj
^D:\WORK\OUTRIDER\Deliverian\Project1.vcxproj
D:\WORK\OUTRIDER\Deliverian\Release\Project1.ipdb
D:\WORK\OUTRIDER\Deliverian\Release\Project1.iobj
^D:\WORK\OUTRIDER\Deliverian\Project1.vcxproj
D:\WORK\OUTRIDER\Deliverian\Release\Project1.ipdb
D:\WORK\OUTRIDER\Deliverian\Release\Project1.iobj
^D:\WORK\OUTRIDER\Deliverian\Project1.vcxproj
D:\WORK\OUTRIDER\Deliverian\Release\Project1.ipdb
D:\WORK\OUTRIDER\Deliverian\Release\Project1.iobj
^D:\WORK\OUTRIDER\Deliverian\Project1.vcxproj
D:\WORK\OUTRIDER\Deliverian\Release\Project1.ipdb
D:\WORK\OUTRIDER\Deliverian\Release\Project1.iobj
^D:\WORK\OUTRIDER\Deliverian\Project1.vcxproj
D:\WORK\OUTRIDER\Deliverian\Release\Project1.ipdb
D:\WORK\OUTRIDER\Deliverian\Release\Project1.iobj
^D:\WORK\OUTRIDER\Deliverian\Project1.vcxproj
D:\WORK\OUTRIDER\Deliverian\Release\Project1.ipdb
D:\WORK\OUTRIDER\Deliverian\Release\Project1.iobj
^D:\WORK\OUTRIDER\Deliverian\Project1.vcxproj
D:\WORK\OUTRIDER\Deliverian\Release\Project1.ipdb
D:\WORK\OUTRIDER\Deliverian\Release\Project1.iobj
^D:\WORK\OUTRIDER\Deliverian\Project1.vcxproj
D:\WORK\OUTRIDER\Deliverian\Release\Project1.ipdb
D:\WORK\OUTRIDER\Deliverian\Release\Project1.iobj
^D:\WORK\OUTRIDER\Deliverian\Project1.vcxproj
D:\WORK\OUTRIDER\Deliverian\Release\Project1.ipdb
D:\WORK\OUTRIDER\Deliverian\Release\Project1.iobj
^D:\WORK\OUTRIDER\Deliverian\Project1.vcxproj
D:\WORK\OUTRIDER\Deliverian\Release\Project1.ipdb
D:\WORK\OUTRIDER\Deliverian\Release\Project1.iobj
^D:\WORK\OUTRIDER\Deliverian\Project1.vcxproj
D:\WORK\OUTRIDER\Deliverian\Release\Project1.ipdb
D:\WORK\OUTRIDER\Deliverian\Release\Project1.iobj
^D:\WORK\OUTRIDER\Deliverian\Project1.vcxproj
D:\WORK\OUTRIDER\Deliverian\Release\Project1.ipdb
D:\WORK\OUTRIDER\Deliverian\Release\Project1.iobj
^D:\WORK\OUTRIDER\Deliverian\Project1.vcxproj
D:\WORK\OUTRIDER\Deliverian\Release\Project1.ipdb
D:\WORK\OUTRIDER\Deliverian\Release\Project1.iobj
^D:\WORK\OUTRIDER\Deliverian\Project1.vcxproj
D:\WORK\OUTRIDER\Deliverian\Release\Project1.ipdb
D:\WORK\OUTRIDER\Deliverian\Release\Project1.iobj
^D:\WORK\OUTRIDER\Deliverian\Project1.vcxproj
D:\WORK\OUTRIDER\Deliverian\Release\Project1.ipdb
D:\WORK\OUTRIDER\Deliverian\Release\Project1.iobj
^D:\WORK\OUTRIDER\Deliverian\Project1.vcxproj
D:\WORK\OUTRIDER\Deliverian\Release\Project1.ipdb
D:\WORK\OUTRIDER\Deliverian\Release\Project1.iobj
^D:\WORK\OUTRIDER\Deliverian\Project1.vcxproj
D:\WORK\OUTRIDER\Deliverian\Release\Project1.ipdb
D:\WORK\OUTRIDER\Deliverian\Release\Project1.iobj
^D:\WORK\OUTRIDER\Deliverian\Project1.vcxproj
D:\WORK\OUTRIDER\Deliverian\Release\Project1.ipdb
D:\WORK\OUTRIDER\Deliverian\Release\Project1.iobj
^D:\WORK\OUTRIDER\Deliverian\Project1.vcxproj
D:\WORK\OUTRIDER\Deliverian\Release\Project1.ipdb
D:\WORK\OUTRIDER\Deliverian\Release\Project1.iobj
^D:\WORK\OUTRIDER\Deliverian\Project1.vcxproj
D:\WORK\OUTRIDER\Deliverian\Release\Project1.ipdb
D:\WORK\OUTRIDER\Deliverian\Release\Project1.iobj
^D:\WORK\OUTRIDER\Deliverian\Project1.vcxproj
D:\WORK\OUTRIDER\Deliverian\Release\Project1.ipdb
D:\WORK\OUTRIDER\Deliverian\Release\Project1.iobj
^D:\WORK\OUTRIDER\Deliverian\Project1.vcxproj
D:\WORK\OUTRIDER\Deliverian\Release\Project1.ipdb
D:\WORK\OUTRIDER\Deliverian\Release\Project1.iobj
^D:\WORK\OUTRIDER\Deliverian\Project1.vcxproj
D:\WORK\OUTRIDER\Deliverian\Release\Project1.ipdb
D:\WORK\OUTRIDER\Deliverian\Release\Project1.iobj
^D:\WORK\OUTRIDER\Deliverian\Project1.vcxproj
D:\WORK\OUTRIDER\Deliverian\Release\Project1.ipdb
D:\WORK\OUTRIDER\Deliverian\Release\Project1.iobj
^D:\WORK\OUTRIDER\Deliverian\Project1.vcxproj
D:\WORK\OUTRIDER\Deliverian\Release\Project1.ipdb
D:\WORK\OUTRIDER\Deliverian\Release\Project1.iobj
^D:\WORK\OUTRIDER\Deliverian\Project1.vcxproj
D:\WORK\OUTRIDER\Deliverian\Release\Project1.ipdb
D:\WORK\OUTRIDER\Deliverian\Release\Project1.iobj
